{
  "20": {
    "Bar": 9,
    "PSI": 130
  },
  "23": {
    "Bar": 8,
    "PSI": 115
  },
  "25": {
    "Bar": 7,
    "PSI": 100
  },
  "28": {
    "Bar": 6,
    "PSI": 85
  },
  "30": {
    "Bar": 5.5,
    "PSI": 80
  },
  "32": {
    "Bar": 5,
    "PSI": 70
  },
  "35": {
    "Bar": 4.5,
    "PSI": 65
  },
  "37": {
    "Bar": 45,
    "PSI": 65
  },
  "40": {
    "Bar": 4,
    "PSI": 55
  },
  "42": {
    "Bar": 4,
    "PSI": 55
  },
  "44": {
    "Bar": 3.5,
    "PSI": 50
  },
  "47": {
    "Bar": 3.5,
    "PSI": 50
  },
  "50": {
    "Bar": 3,
    "PSI": 45
  },
  "54": {
    "Bar": 2.5,
    "PSI": 35
  },
  "57": {
    "Bar": 2.2,
    "PSI": 32
  },
  "60": {
    "Bar": 2,
    "PSI": 30
  }
}