{
  "id": "c70a3718-395f-43c1-84b4-984e03e9dfe0",
  "parentId": "d55aa5ec-4088-4694-87ed-f19f4a1faeb4",
  "rootParentId": "d55aa5ec-4088-4694-87ed-f19f4a1faeb4",
  "name": "taillePneuIntent - more",
  "auto": true,
  "contexts": [
    "taillePneuIntent-followup"
  ],
  "responses": [
    {
      "resetContexts": false,
      "action": "taillePneuIntent.taillePneuIntent-more",
      "affectedContexts": [],
      "parameters": [],
      "messages": [
        {
          "type": 0,
          "lang": "fr",
          "condition": "",
          "speech": []
        }
      ],
      "defaultResponsePlatforms": {},
      "speech": []
    }
  ],
  "priority": 500000,
  "webhookUsed": true,
  "webhookForSlotFilling": true,
  "fallbackIntent": false,
  "events": [],
  "conditionalResponses": [],
  "condition": "",
  "conditionalFollowupEvents": []
}